# This file uses centimeters as units for non-parametric coordinates.

mtllib bug_car.mtl
g default
v -0.639745 0.661755 0.752490
v 0.639745 0.661755 0.752490
v -0.639745 0.960557 0.752490
v 0.639745 0.960557 0.752490
v -0.639745 0.960557 -0.752491
v 0.639745 0.960557 -0.752491
v -0.639745 0.661755 -0.752491
v 0.639745 0.661755 -0.752491
v 0.000000 0.622452 0.950447
v 0.000000 0.999859 0.950447
v 0.000000 0.999859 -0.950447
v 0.000000 0.622452 -0.950447
v -0.808042 0.811156 0.950447
v 0.808042 0.811156 0.950447
v -0.808042 0.999859 -0.000000
v 0.808042 0.999859 -0.000000
v -0.808042 0.811156 -0.950447
v 0.808042 0.811156 -0.950447
v -0.808042 0.622452 -0.000000
v 0.808042 0.622452 -0.000000
v 0.000000 0.811156 1.298047
v 0.000000 1.068872 -0.000000
v 0.000000 0.811156 -1.298047
v 0.000000 0.553439 -0.000000
v 1.103561 0.811156 -0.000000
v -1.103561 0.811156 -0.000000
v -0.379485 0.635440 0.885031
v 0.379486 0.635440 0.885031
v -0.379485 0.986872 0.885031
v 0.379486 0.986872 0.885031
v -0.398385 1.189427 -0.816665
v 0.357426 1.189427 -0.818685
v -0.379485 0.635440 -0.885032
v 0.379486 0.635440 -0.885032
v -0.752428 0.722534 0.885031
v -0.752428 0.899778 0.885031
v 0.752428 0.722534 0.885031
v 0.752428 0.899778 0.885031
v -0.752428 0.986872 0.446364
v -0.752428 0.986872 -0.446364
v 0.752428 0.986872 0.446364
v 0.752428 0.986872 -0.446364
v -0.752428 0.899778 -0.885032
v -0.752428 0.722534 -0.885032
v 0.752428 0.899778 -0.885032
v 0.752428 0.722534 -0.885032
v -0.752428 0.635440 -0.446364
v -0.752428 0.635440 0.446364
v 0.752428 0.635440 -0.446364
v 0.752428 0.635440 0.446364
v 0.000000 0.708273 1.210826
v 0.440552 0.811156 1.210826
v 0.000000 0.914039 1.210826
v -0.440552 0.811156 1.210826
v 0.000000 1.051555 0.518192
v 0.440552 1.051555 -0.000000
v 0.000000 1.051555 -0.518192
v -0.440552 1.051555 -0.000000
v 0.000000 0.914039 -1.210827
v 0.440552 0.811156 -1.210827
v 0.000000 0.708273 -1.210827
v -0.440552 0.811156 -1.210827
v 0.000000 0.570756 -0.518192
v 0.440552 0.570756 -0.000000
v 0.000000 0.570756 0.518192
v -0.440552 0.570756 -0.000000
v 1.029409 0.708273 -0.000000
v 1.029409 0.811156 -0.518192
v 1.029409 0.914039 -0.000000
v 1.029409 0.811156 0.518192
v -1.029409 0.708273 -0.000000
v -1.029409 0.811156 0.518192
v -1.029409 0.914039 -0.000000
v -1.029409 0.811156 -0.518192
v 0.410019 0.715403 1.128736
v 0.410019 0.906908 1.128736
v -0.410019 0.906908 1.128736
v -0.410019 0.715403 1.128736
v 0.410019 1.035257 0.482278
v 0.410019 1.035257 -0.482278
v -0.410019 1.035257 -0.482278
v -0.410019 1.035257 0.482278
v 0.410019 0.906908 -1.128736
v 0.410019 0.715403 -1.128736
v -0.410019 0.715403 -1.128736
v -0.410019 0.906908 -1.128736
v 0.410019 0.587054 -0.482278
v 0.410019 0.587054 0.482278
v -0.410019 0.587054 0.482278
v -0.410019 0.587054 -0.482278
v 0.959618 0.715403 -0.482278
v 0.959618 0.906908 -0.482278
v 0.959618 0.906908 0.482278
v 0.959618 0.715403 0.482278
v -0.959618 0.715403 0.482278
v -0.959618 0.906908 0.482278
v -0.959618 0.906908 -0.482278
v -0.959618 0.715403 -0.482278
v 0.223475 1.019214 -0.684734
v 0.308397 1.023570 -0.635705
v 0.406455 1.017782 -0.635705
v 0.491376 0.993281 -0.684734
v 0.555482 0.984385 -0.765616
v 0.555482 0.984385 -0.871754
v 0.502413 0.984385 -0.963672
v 0.410495 0.984385 -1.016741
v 0.410019 0.906908 -1.128736
v 0.304357 0.984385 -1.016741
v 0.212439 0.984385 -0.963672
v 0.159370 0.984385 -0.871754
v 0.000000 1.051555 -0.518192
v 0.159370 0.984385 -0.765616
v 0.406455 1.062851 -0.635705
v 0.174446 1.062851 -0.867714
v 0.223475 1.062851 -0.684734
v 0.540406 1.062851 -0.769656
v 0.540406 1.062851 -0.867714
v 0.406455 1.062851 -1.001665
v 0.491376 1.062851 -0.684734
v 0.308397 1.062851 -0.635705
v 0.174446 1.062851 -0.769656
v 0.223476 1.062851 -0.952635
v 0.308397 1.062851 -1.001665
v 0.491376 1.062851 -0.952635
v 0.394952 1.129372 -0.678638
v 0.217380 1.129371 -0.856210
v 0.319901 1.129372 -0.678638
v 0.254905 1.129372 -0.921207
v 0.459947 1.129371 -0.921206
v 0.254905 1.129372 -0.716164
v 0.497473 1.129371 -0.781160
v 0.497473 1.129371 -0.856210
v 0.394951 1.129371 -0.958731
v 0.459947 1.129372 -0.716164
v 0.217380 1.129372 -0.781160
v 0.319901 1.129372 -0.958732
v 0.377735 1.173819 -0.742892
v 0.281634 1.173819 -0.838993
v 0.337117 1.173819 -0.742892
v 0.301942 1.173819 -0.874169
v 0.412910 1.173819 -0.874169
v 0.301942 1.173819 -0.763201
v 0.433219 1.173819 -0.798376
v 0.433218 1.173819 -0.838994
v 0.377735 1.173819 -0.894477
v 0.412910 1.173819 -0.763201
v 0.281633 1.173819 -0.798377
v 0.337118 1.173819 -0.894477
v -0.447414 1.015835 -0.633685
v 0.000000 1.051555 -0.518193
v -0.349356 1.018619 -0.633685
v -0.264435 1.014780 -0.682715
v 0.000000 0.999859 -0.950447
v -0.215405 1.002045 -0.767636
v -0.200329 0.984385 -0.869734
v 0.000000 0.999859 -0.950447
v -0.253398 0.984385 -0.961652
v -0.345316 0.984385 -1.014721
v -0.410019 0.906908 -1.128736
v -0.451454 0.984385 -1.014721
v -0.752428 0.899778 -0.885032
v -0.543372 0.984385 -0.961652
v -0.596441 0.984385 -0.869734
v -0.596441 0.984385 -0.763596
v -0.639745 0.960557 -0.752491
v -0.532336 0.984826 -0.682715
v -0.581365 1.062851 -0.767636
v -0.264434 1.062851 -0.682715
v -0.581365 1.062851 -0.865694
v -0.349356 1.062851 -0.999645
v -0.447414 1.062851 -0.633685
v -0.215405 1.062851 -0.865694
v -0.349356 1.062851 -0.633685
v -0.215405 1.062851 -0.767636
v -0.532335 1.062851 -0.682715
v -0.532335 1.062851 -0.950616
v -0.447414 1.062851 -0.999645
v -0.264434 1.062851 -0.950615
v -0.538432 1.129372 -0.779140
v -0.295864 1.129372 -0.714144
v -0.538432 1.129372 -0.854191
v -0.360860 1.129372 -0.956712
v -0.258338 1.129372 -0.779140
v -0.500906 1.129372 -0.919186
v -0.295864 1.129372 -0.919187
v -0.435910 1.129371 -0.676619
v -0.258338 1.129372 -0.854191
v -0.360859 1.129372 -0.676619
v -0.500906 1.129372 -0.714144
v -0.435910 1.129372 -0.956712
v -0.474178 1.173819 -0.796357
v -0.342901 1.173819 -0.761181
v -0.474178 1.173819 -0.836974
v -0.378076 1.173819 -0.892458
v -0.322592 1.173819 -0.796357
v -0.453869 1.173819 -0.872149
v -0.342901 1.173819 -0.872149
v -0.418694 1.173819 -0.740872
v -0.322592 1.173819 -0.836974
v -0.378076 1.173819 -0.740872
v -0.453869 1.173819 -0.761181
v -0.418694 1.173819 -0.892458
vt 0.603388 0.103351
vt 0.577669 0.072708
vt 0.398762 0.113994
vt 0.339492 0.082120
vt 0.424769 0.085170
vt 0.346908 0.027809
vt 0.662984 0.073977
vt 0.656106 0.018234
vt 0.748873 0.000888
vt 0.748873 0.060334
vt 0.896085 0.107704
vt 0.252781 0.065155
vt 0.836606 0.076559
vt 0.253237 0.006974
vt 0.472251 0.859967
vt 0.105902 0.107713
vt 0.527880 0.720822
vt 0.921921 0.077828
vt 0.500066 0.720822
vt 0.500066 0.442533
vt 0.843698 0.021024
vt 0.500066 0.755609
vt 0.080325 0.077783
vt 0.500066 0.859967
vt 0.165773 0.078394
vt 0.159211 0.023783
vt 0.345693 0.173446
vt 0.195002 0.601586
vt 0.602726 0.446943
vt 0.527880 0.686036
vt 0.662205 0.478088
vt 0.576890 0.476819
vt 0.655113 0.533623
vt 0.748873 0.494314
vt 0.472251 0.720822
vt 0.423945 0.183996
vt 0.748873 0.553759
vt 0.435761 0.285887
vt 0.500065 0.477319
vt 0.895423 0.451296
vt 0.351697 0.283359
vt 0.250877 0.280954
vt 0.921142 0.481939
vt 0.251935 0.163014
vt 0.422093 0.387597
vt 0.395641 0.457230
vt 0.343693 0.393429
vt 0.249786 0.399379
vt 0.835828 0.480670
vt 0.842705 0.536413
vt 0.155996 0.389403
vt 0.655397 0.386034
vt 0.577083 0.376670
vt 0.564557 0.274574
vt 0.648625 0.275825
vt 0.748873 0.277323
vt 0.102780 0.450949
vt 0.102781 0.450948
vt 0.748873 0.395629
vt 0.577476 0.172857
vt 0.077649 0.380209
vt 0.065859 0.277954
vt 0.655822 0.165823
vt 0.748873 0.159018
vt 0.843414 0.168613
vt 0.472251 0.894753
vt 0.921728 0.177977
vt 0.150023 0.279034
vt 0.079501 0.176608
vt 0.157996 0.169420
vt 0.248215 0.559271
vt 0.248839 0.498686
vt 0.500066 0.894753
vt 0.934254 0.280073
vt 0.850187 0.278823
vt 0.342226 0.542663
vt 0.342226 0.542663
vt 0.154529 0.538637
vt 0.248839 0.498686
vt 0.265711 0.795102
vt 0.421098 0.488862
vt 0.761878 0.790183
vt 0.469364 0.397925
vt 0.486345 0.288176
vt 0.471364 0.177942
vt 0.032073 0.168520
vt 0.500066 0.686036
vt 0.015106 0.278069
vt 0.921335 0.381790
vt 0.842990 0.388824
vt 0.529671 0.384164
vt 0.513917 0.273821
vt 0.530095 0.163953
vt 0.500066 0.651250
vt 0.030073 0.388503
vt 0.969141 0.170483
vt 0.984894 0.280826
vt 0.968716 0.390694
vt 0.765683 0.740208
vt 0.472251 0.825181
vt 0.527880 0.825181
vt 0.527880 0.859967
vt 0.500066 0.825181
vt 0.768585 0.686190
vt 0.247519 0.701364
vt 0.527880 0.755608
vt 0.527880 0.790395
vt 0.472251 0.755609
vt 0.472251 0.790395
vt 0.076654 0.481475
vt 0.300560 0.438912
vt 0.249786 0.399379
vt 0.320103 0.428086
vt 0.500066 0.790395
vt 0.472251 0.999111
vt 0.472251 0.964325
vt 0.472251 0.442533
vt 0.500065 0.964325
vt 0.342542 0.428648
vt 0.361854 0.440590
vt 0.376350 0.459476
vt 0.376130 0.483682
vt 0.472251 0.477320
vt 0.527880 0.964325
vt 0.500065 0.999112
vt 0.204575 0.994153
vt 0.204573 0.922920
vt 0.255158 0.938256
vt 0.262435 0.984402
vt 0.052354 0.814723
vt 0.050446 0.756765
vt 0.119830 0.756546
vt 0.300100 0.570683
vt 0.363793 0.504385
vt 0.296362 0.629324
vt 0.440205 0.759687
vt 0.445079 0.820814
vt 0.342643 0.516037
vt 0.396919 0.811902
vt 0.527880 0.651251
vt 0.392419 0.755429
vt 0.472251 0.651250
vt 0.121593 0.810094
vt 0.084075 0.858339
vt 0.244834 0.627710
vt 0.472251 0.686036
vt 0.209226 0.838155
vt 0.345379 0.797661
vt 0.343060 0.756262
vt 0.244324 0.568935
vt 0.140727 0.856249
vt 0.249624 0.854610
vt 0.376259 0.705153
vt 0.310621 0.937279
vt 0.422715 0.705269
vt 0.191650 0.760992
vt 0.316963 0.977499
vt 0.192921 0.801272
vt 0.740424 0.560236
vt 0.347382 0.606361
vt 0.356104 0.920252
vt 0.388566 0.859444
vt 0.340044 0.662285
vt 0.278253 0.830540
vt 0.256833 0.831185
vt 0.236197 0.762515
vt 0.254424 0.751247
vt 0.294717 0.760750
vt 0.305985 0.778980
vt 0.296481 0.819271
vt 0.306631 0.800398
vt 0.226047 0.781388
vt 0.542121 0.745016
vt 0.607283 0.750841
vt 0.237961 0.821034
vt 0.733460 0.994115
vt 0.318349 0.515516
vt 0.735942 0.949653
vt 0.796445 0.941123
vt 0.297421 0.502962
vt 0.612029 0.812295
vt 0.565326 0.810005
vt 0.285465 0.481738
vt 0.631426 0.866622
vt 0.756521 0.621694
vt 0.285685 0.457531
vt 0.698740 0.629480
vt 0.249786 0.399379
vt 0.974346 0.753871
vt 0.913064 0.769979
vt 0.903629 0.710240
vt 0.169551 0.424465
vt 0.964134 0.689209
vt 0.880107 0.663682
vt 0.793808 0.988383
vt 0.938674 0.638816
vt 0.677881 0.568663
vt 0.845354 0.996281
vt 0.594504 0.864812
vt 0.472251 0.581678
vt 0.675244 0.763349
vt 0.905883 0.826891
vt 0.961740 0.810009
vt 0.799613 0.569566
vt 0.680910 0.808264
vt 0.848240 0.780564
vt 0.500066 0.581678
vt 0.840780 0.736305
vt 0.811206 0.630314
vt 0.700912 0.850708
vt 0.813930 0.696182
vt 0.618462 0.698726
vt 0.681733 0.989476
vt 0.554219 0.688607
vt 0.684430 0.941156
vt 0.836381 0.833167
vt 0.653342 0.651585
vt 0.807180 0.789315
vt 0.799209 0.811457
vt 0.724547 0.759565
vt 0.742522 0.744374
vt 0.781235 0.826645
vt 0.716576 0.781706
vt 0.413147 0.862872
vt 0.725075 0.693020
vt 0.720743 0.804867
vt 0.795750 0.854779
vt 0.751198 0.861894
vt 0.758074 0.830812
vt 0.472251 0.616464
vt 0.500066 0.616464
vt 0.527880 0.616464
vt 0.527880 0.581678
vt 0.527880 0.616464
vt 0.363149 0.964933
vt 0.290639 0.853640
vt 0.329376 0.837687
vt 0.135915 0.709958
vt 0.067856 0.706337
vt 0.207589 0.724150
vt 0.500066 0.512106
vt 0.472251 0.512106
vt 0.527880 0.512106
vt 0.527880 0.477319
vt 0.527880 0.442533
vt 0.226691 0.802807
vt 0.500066 0.546892
vt 0.628743 0.592590
vt 0.527880 0.546891
vt 0.472251 0.546892
vt 0.199264 0.657874
vt 0.500065 0.929538
vt 0.472251 0.929539
vt 0.527880 0.929539
vt 0.527880 0.894753
vt 0.287027 0.701385
vt 0.527880 0.999112
vt 0.147103 0.424023
vt 0.188882 0.436118
vt 0.248839 0.498686
vt 0.199916 0.455905
vt 0.203138 0.479511
vt 0.190800 0.500214
vt 0.169651 0.511866
vt 0.154529 0.538637
vt 0.145358 0.511345
vt 0.076654 0.481475
vt 0.124429 0.498791
vt 0.112473 0.477566
vt 0.112693 0.453360
vt 0.127534 0.435222
vt 0.688090 0.714856
vt 0.275844 0.750601
vt 0.803014 0.766154
vt 0.849730 0.917850
vt 0.787824 0.748181
vt 0.326775 0.720263
vt 0.735933 0.822841
vn 0.224564 -0.961224 0.160062
vn 0.412978 -0.846851 0.335101
vn 0.113095 -0.974986 0.191341
vn 0.207806 -0.861892 0.462558
vn 0.705437 -0.000000 0.708772
vn 0.334852 -0.000000 0.942271
vn 0.000000 0.000000 1.000000
vn -0.000000 -0.839600 0.543205
vn 0.000000 -0.975603 0.219541
vn 0.224564 0.961224 0.160062
vn 0.113095 0.974986 0.191341
vn 0.412978 0.846851 0.335102
vn 0.207805 0.861892 0.462558
vn -0.000000 0.975603 0.219541
vn 0.000000 0.839600 0.543205
vn -0.224564 0.961224 0.160062
vn -0.412978 0.846851 0.335102
vn -0.113094 0.974986 0.191341
vn -0.207806 0.861892 0.462558
vn -0.705437 -0.000000 0.708772
vn -0.334852 0.000000 0.942271
vn -0.224564 -0.961224 0.160062
vn -0.113095 -0.974986 0.191341
vn -0.412978 -0.846851 0.335102
vn -0.207805 -0.861892 0.462558
vn 0.086633 0.993446 0.074559
vn 0.227542 0.970022 0.085333
vn 0.228817 0.973470 0.000000
vn 0.083980 0.996467 0.000000
vn 0.000000 1.000000 0.000000
vn -0.000000 0.996830 0.079560
vn 0.227542 0.970022 -0.085333
vn 0.252911 0.961764 -0.105103
vn 0.094500 0.991864 -0.085301
vn 0.500000 -0.000001 0.866025
vn 0.477726 0.295147 0.827445
vn 0.186735 0.291284 0.938234
vn 0.187208 -0.000000 0.982320
vn -0.942973 0.195065 -0.269724
vn -0.982038 0.188685 -0.000001
vn -0.923395 0.383852 -0.000000
vn -0.883424 0.394900 -0.252220
vn 0.113095 0.974986 -0.191341
vn 0.000001 0.917780 0.397090
vn 0.089710 0.925924 0.366902
vn -0.000000 0.996830 -0.079560
vn -0.113095 0.974986 -0.191341
vn -0.333897 0.938026 0.092839
vn -0.312001 0.932849 0.180132
vn -0.086633 0.993446 -0.074559
vn -0.207556 0.977646 -0.033614
vn -0.224564 0.961224 -0.160062
vn -0.227542 0.970022 -0.085333
vn -0.228817 0.973470 -0.000000
vn -0.083980 0.996467 -0.000000
vn 0.957609 0.156590 -0.241795
vn 0.893495 0.379640 -0.239876
vn 0.936794 0.348476 0.031332
vn 0.992263 0.105515 0.065430
vn -0.000001 0.000000 1.000000
vn -0.000000 0.275097 0.961416
vn -0.186735 0.291286 0.938234
vn -0.187208 0.000000 0.982320
vn -0.227542 0.970022 0.085333
vn -0.086633 0.993446 0.074559
vn 0.938142 0.146920 0.313533
vn 0.942973 0.195064 -0.269724
vn 0.883425 0.394899 -0.252221
vn 0.885985 0.373665 0.274600
vn 0.113095 0.974986 -0.191341
vn 0.189886 0.925080 -0.328893
vn 0.089708 0.925924 -0.366903
vn 0.412978 0.846851 -0.335101
vn 0.705437 0.000000 -0.708772
vn 0.240492 0.785678 -0.569977
vn 0.334852 0.000000 -0.942271
vn 0.000000 0.000000 -1.000000
vn -0.000000 0.839600 -0.543205
vn 0.016375 0.978223 -0.206908
vn 0.040461 0.903601 -0.426460
vn 0.113095 0.974986 -0.191341
vn -0.312001 0.932850 -0.180129
vn -0.333898 0.938026 -0.092837
vn 0.224564 -0.961224 -0.160062
vn 0.113095 -0.974986 -0.191341
vn 0.412978 -0.846851 -0.335102
vn 0.207805 -0.861892 -0.462558
vn -0.000000 -0.975603 -0.219541
vn 0.000000 -0.839600 -0.543205
vn -0.224564 -0.961224 -0.160062
vn -0.412978 -0.846851 -0.335102
vn -0.113094 -0.974986 -0.191341
vn -0.207806 -0.861892 -0.462558
vn -0.705437 0.000000 -0.708772
vn -0.334852 -0.000000 -0.942271
vn -0.937715 0.143920 0.316191
vn -0.886116 0.372333 0.275982
vn -0.883425 0.394899 -0.252222
vn -0.942973 0.195063 -0.269725
vn -0.799923 0.383180 -0.461839
vn -0.850469 0.188682 -0.491021
vn -0.113095 0.974986 -0.191341
vn 0.189886 0.925080 -0.328894
vn 0.089707 0.925924 -0.366904
vn -0.207805 0.861892 -0.462558
vn -0.061063 0.971776 -0.227867
vn -0.412978 0.846851 -0.335102
vn -0.265694 0.745337 -0.611457
vn 0.086633 -0.993446 -0.074559
vn 0.227542 -0.970022 -0.085333
vn 0.228817 -0.973470 -0.000000
vn 0.083980 -0.996467 -0.000000
vn 0.000000 -1.000000 0.000000
vn -0.000000 -0.996830 -0.079560
vn 0.227542 -0.970022 0.085333
vn 0.086633 -0.993446 0.074559
vn -0.000000 -0.996830 0.079560
vn -0.086633 -0.993446 0.074559
vn -0.227542 -0.970022 0.085333
vn -0.228817 -0.973470 0.000000
vn -0.083980 -0.996467 0.000000
vn -0.227542 -0.970022 -0.085333
vn -0.086633 -0.993446 -0.074559
vn 0.527737 -0.833157 -0.165356
vn 0.941538 0.000000 -0.336907
vn 1.000000 0.000000 0.000000
vn 0.547393 -0.836876 0.000000
vn 0.527737 0.833157 -0.165356
vn 0.547393 0.836876 0.000000
vn 0.527737 0.833157 0.165356
vn 0.941538 -0.000000 0.336907
vn 0.527737 -0.833157 0.165356
vn -0.527737 -0.833157 0.165356
vn -0.941538 0.000000 0.336906
vn -1.000000 0.000000 -0.000000
vn -0.547393 -0.836876 0.000000
vn -0.527737 0.833157 0.165356
vn -0.547393 0.836876 -0.000000
vn -0.527737 0.833157 -0.165356
vn -0.941538 -0.000000 -0.336906
vn -0.527737 -0.833157 -0.165356
vn -0.029646 0.974544 -0.222227
vn 0.050408 0.980321 -0.190866
vn 0.044448 0.991832 -0.119552
vn 0.132170 0.984510 -0.115204
vn 0.058539 0.991718 -0.114315
vn 0.132170 0.984510 -0.115204
vn 0.150814 0.978277 -0.142228
vn 0.306293 0.951728 0.019979
vn 0.256687 0.961545 0.097688
vn 0.367038 0.919393 -0.141418
vn 0.418457 0.709363 -0.567184
vn 0.139059 0.814126 -0.563791
vn 0.312530 0.780575 -0.541319
vn 0.000001 0.822394 -0.568919
vn 0.043526 0.923416 -0.381326
vn 0.075272 0.996216 0.043458
vn 0.085928 0.996062 0.021849
vn 0.085928 0.996062 0.021849
vn 0.227968 0.966779 -0.115623
vn -0.104207 0.940805 -0.322532
vn 0.824422 0.099166 0.557221
vn 0.796376 0.340814 0.499631
vn 0.113095 0.974986 -0.191341
vn -0.247620 0.932994 0.261163
vn -0.189886 0.925080 0.328893
vn -0.312001 0.932850 0.180130
vn 0.000000 0.188688 -0.982037
vn 0.000001 0.368089 -0.929791
vn 0.181403 0.382953 -0.905781
vn 0.185617 0.194616 -0.963157
vn -0.491019 0.188687 -0.850469
vn -0.491019 0.188687 -0.850469
vn -0.462623 0.379362 -0.801289
vn -0.462623 0.379362 -0.801289
vn 0.113095 0.974986 -0.191341
vn 0.333897 0.938027 -0.092839
vn 0.311999 0.932849 -0.180134
vn 0.354126 0.705963 0.613360
vn 0.151876 0.709458 0.688188
vn -0.698475 0.715635 -0.000001
vn -0.660922 0.726724 -0.187228
vn 0.000000 0.275096 0.961417
vn 0.000000 0.000000 1.000000
vn 0.660921 0.726724 -0.187230
vn 0.660921 0.726724 0.187230
vn 0.462624 0.379364 -0.801288
vn 0.491020 0.188687 -0.850469
vn -0.799925 0.383181 -0.461836
vn -0.850470 0.188684 -0.491018
vn 0.606380 0.713959 0.350095
vn -0.477724 0.295145 0.827447
vn -0.625023 0.326775 0.708918
vn -0.651849 0.049993 0.756699
vn -0.499997 -0.000003 0.866027
vn -0.797482 0.351169 0.490614
vn -0.831610 0.120614 0.542104
vn 0.000001 0.691258 -0.722608
vn 0.151876 0.709458 -0.688188
vn -0.354121 0.705963 -0.613363
vn -0.354121 0.705963 -0.613363
vn 0.799924 0.383181 -0.461837
vn 0.850470 0.188683 -0.491018
vn 0.000001 0.691257 0.722609
vn 0.354124 0.705963 -0.613362
vn -0.606382 0.713959 -0.350090
vn -0.354123 0.705963 0.613362
vn -0.468107 0.721125 0.510740
vn -0.606381 0.713960 0.350090
vn 0.606380 0.713959 -0.350094
vn 0.189888 0.925080 0.328891
vn -0.354042 0.935229 0.000001
vn 0.333898 0.938026 0.092841
vn 0.312001 0.932849 0.180134
vn -0.000002 0.917780 -0.397090
vn -0.189881 0.925080 -0.328896
vn -0.189881 0.925080 -0.328896
vn 0.113095 0.974986 -0.191341
vn -0.040776 0.988037 -0.148730
vn -0.046217 0.990775 -0.127391
vn -0.169809 0.981310 -0.090532
vn -0.038057 0.986490 -0.159339
vn -0.042945 0.987492 -0.151706
vn -0.101252 0.990817 -0.089611
vn -0.090337 0.988864 -0.118265
vn -0.106786 0.991453 -0.074956
vn -0.151542 0.969987 -0.190157
vn -0.062505 0.997392 0.036088
vn 0.163987 0.770161 -0.616409
vn 0.379679 0.650677 -0.657619
vn -0.000002 0.827108 -0.562043
vn -0.487801 0.812497 -0.319216
vn -0.477281 0.587602 -0.653397
vn -0.463275 0.876530 -0.130660
vn -0.441585 0.860234 -0.254952
vn -0.440600 0.882253 0.165834
vn -0.396301 0.864423 0.309384
vn -0.321197 0.946080 -0.042029
vn 0.666131 0.000001 0.745835
vn 0.636059 0.306941 0.707967
vn 0.477726 0.295147 0.827445
vn 0.500000 -0.000000 0.866025
vn 0.866026 0.000003 0.499999
vn 0.825648 0.301789 0.476686
vn -0.113095 0.974986 -0.191341
vn -0.189888 0.925079 0.328894
vn -0.089708 0.925923 0.366904
vn -0.000001 0.188686 -0.982037
vn -0.000000 0.368087 -0.929791
vn 0.181403 0.382951 -0.905782
vn 0.185616 0.194615 -0.963157
vn -0.491018 0.188682 -0.850471
vn -0.462624 0.379361 -0.801289
vn -0.462624 0.379361 -0.801289
vn -0.491018 0.188682 -0.850471
vn -0.113095 0.974986 -0.191341
vn 0.333897 0.938026 -0.092839
vn 0.312000 0.932849 -0.180133
vn -0.796070 0.338161 0.501917
vn -0.822505 0.093722 0.560983
vn 0.660922 0.726724 -0.187229
vn 0.698476 0.715634 0.000001
vn 0.000000 0.691259 0.722608
vn -0.151876 0.709459 0.688187
vn -0.660921 0.726724 0.187230
vn -0.660920 0.726725 -0.187230
vn -0.606378 0.713960 -0.350096
vn 0.462624 0.379362 -0.801289
vn 0.491019 0.188686 -0.850469
vn 0.468107 0.721125 0.510740
vn 0.354124 0.705964 0.613360
vn 0.606380 0.713960 0.350093
vn -0.477726 0.295149 0.827445
vn -0.500000 0.000000 0.866025
vn -0.000000 0.691257 -0.722609
vn 0.151875 0.709458 -0.688189
vn -0.354124 0.705964 -0.613361
vn -0.354124 0.705964 -0.613361
vn 0.799925 0.383180 -0.461837
vn 0.850470 0.188683 -0.491019
vn -0.606380 0.713959 0.350093
vn 0.354123 0.705962 -0.613363
vn -0.354125 0.705963 0.613360
vn 0.606380 0.713959 -0.350094
vn 0.354042 0.935230 0.000000
vn 0.000002 0.917779 0.397091
vn -0.333897 0.938027 -0.092840
vn -0.311999 0.932849 -0.180134
vn 0.247619 0.932994 0.261165
vn 0.189887 0.925079 0.328894
vn 0.311999 0.932850 0.180134
vn -0.000004 0.917780 -0.397090
vn -0.189885 0.925079 -0.328895
vn -0.189885 0.925079 -0.328895
vn -0.113095 0.974986 -0.191341
vn -0.113095 0.974986 -0.191341
vn 0.096644 0.995319 0.000000
vn -0.033179 0.985409 -0.166938
vn 0.213255 0.970151 -0.115452
vn -0.101241 0.977660 -0.184203
vn -0.038932 0.919954 -0.390087
vn -0.434393 0.495187 -0.752391
vn -0.434393 0.495187 -0.752391
vn -0.434393 0.495187 -0.752391
vn -0.352310 0.709586 -0.610218
vn -0.352310 0.709586 -0.610218
vn -0.352310 0.709586 -0.610218
vn 0.373147 0.902413 -0.215436
s 1
g pCube1
usemtl phong1SG
f 2/1/1 37/2/2 28/7/3
f 28/7/3 37/2/2 75/8/4
f 37/15/2 14/24/5 75/66/4
f 75/66/4 14/24/5 52/73/6
f 21/252/7 51/253/8 52/73/6
f 52/73/6 51/253/8 75/66/4
f 51/9/8 9/10/9 75/8/4
f 75/8/4 9/10/9 28/7/3
f 4/3/10 30/4/11 38/5/12
f 38/5/12 30/4/11 76/6/13
f 30/4/11 10/12/14 76/6/13
f 76/6/13 10/12/14 53/14/15
f 21/252/7 52/73/6 53/254/15
f 53/254/15 52/73/6 76/255/13
f 52/73/6 14/24/5 76/255/13
f 76/255/13 14/24/5 38/102/12
f 3/16/16 36/23/17 29/25/18
f 29/25/18 36/23/17 77/26/19
f 36/257/17 13/125/20 77/124/19
f 77/124/19 13/125/20 54/118/21
f 21/252/7 53/254/15 54/118/21
f 54/118/21 53/254/15 77/124/19
f 53/14/15 10/12/14 77/26/19
f 77/26/19 10/12/14 29/25/18
f 1/11/22 27/13/23 35/18/24
f 35/18/24 27/13/23 78/21/25
f 27/13/23 9/10/9 78/21/25
f 78/21/25 9/10/9 51/9/8
f 21/252/7 54/118/21 51/253/8
f 51/253/8 54/118/21 78/116/25
f 54/118/21 13/125/20 78/116/25
f 78/116/25 13/125/20 35/115/24
f 30/4/11 4/3/10 79/27/26
f 79/27/26 4/3/10 41/36/27
f 16/38/28 56/41/29 41/36/27
f 41/36/27 56/41/29 79/27/26
f 56/41/29 22/42/30 79/27/26
f 79/27/26 22/42/30 55/44/31
f 10/12/14 30/4/11 55/44/31
f 55/44/31 30/4/11 79/27/26
f 42/45/32 6/46/33 80/47/34
s 8
f 102/126/35 119/127/36 113/128/37 101/129/38
s 9
f 110/136/39 112/137/40 121/139/41 114/141/42
s 8
f 32/80/43 139/164/44 137/165/45
s 1
f 57/48/46 22/42/30 80/47/34
f 80/47/34 22/42/30 56/41/29
f 16/38/28 42/45/32 56/41/29
f 56/41/29 42/45/32 80/47/34
s 12
f 31/82/47 191/218/48 201/219/49
s 1
f 81/51/50 165/57/51 5/58/52 40/61/53
f 15/62/54 58/68/55 40/61/53
f 40/61/53 58/68/55 81/51/50
f 58/68/55 22/42/30 81/51/50
f 81/51/50 22/42/30 57/48/46
s 15
f 155/173/56 172/174/57 174/181/58 154/182/59
s 16
f 151/176/60 173/178/61 171/179/62 149/195/63
s 1
f 39/69/64 3/16/16 82/70/65
f 82/70/65 3/16/16 29/25/18
f 10/12/14 55/44/31 29/25/18
f 29/25/18 55/44/31 82/70/65
f 55/44/31 22/42/30 82/70/65
f 82/70/65 22/42/30 58/68/55
f 15/62/54 39/69/64 58/68/55
f 58/68/55 39/69/64 82/70/65
s 18
f 103/130/66 104/131/67 117/132/68 116/143/69
s 19
f 32/80/70 141/166/71 145/167/72
s 1
f 45/17/73 18/19/74 83/30/75
f 83/30/75 18/19/74 60/87/76
f 23/94/77 59/140/78 60/87/76
f 60/87/76 59/140/78 83/30/75
f 59/71/78 11/72/79 107/76/80 83/77/75
s 9
f 32/80/81 140/168/82 138/169/83
s 1
f 8/29/84 34/31/85 46/32/86
f 46/32/86 34/31/85 84/33/87
f 34/31/85 12/34/88 84/33/87
f 84/33/87 12/34/88 61/37/89
f 23/94/77 60/87/76 61/142/89
f 61/142/89 60/87/76 84/146/87
f 60/87/76 18/19/74 84/146/87
f 84/146/87 18/19/74 46/35/86
f 7/40/90 44/43/91 33/49/92
f 33/49/92 44/43/91 85/50/93
f 44/200/91 17/207/94 85/230/93
f 85/230/93 17/207/94 62/231/95
f 23/94/77 61/142/89 62/231/95
f 62/231/95 61/142/89 85/230/93
f 61/37/89 12/34/88 85/50/93
f 85/50/93 12/34/88 33/49/92
s 12
f 164/189/96 167/190/97 169/191/98 163/193/99
f 163/193/99 169/191/98 176/194/100 162/196/101
s 26
f 31/82/102 197/220/103 194/221/104
s 1
f 86/78/105 156/79/106 11/72/79 59/71/78
f 23/94/77 62/231/95 59/140/78
f 59/140/78 62/231/95 86/232/105
f 62/231/95 17/207/94 86/232/105
f 86/232/105 17/207/94 43/233/107 159/234/108
f 34/31/85 8/29/84 87/52/109
f 87/52/109 8/29/84 49/53/110
f 20/54/111 64/55/112 49/53/110
f 49/53/110 64/55/112 87/52/109
f 64/55/112 24/56/113 87/52/109
f 87/52/109 24/56/113 63/59/114
f 12/34/88 34/31/85 63/59/114
f 63/59/114 34/31/85 87/52/109
f 50/60/115 2/1/1 88/63/116
f 88/63/116 2/1/1 28/7/3
f 9/10/9 65/64/117 28/7/3
f 28/7/3 65/64/117 88/63/116
f 65/64/117 24/56/113 88/63/116
f 88/63/116 24/56/113 64/55/112
f 20/54/111 50/60/115 64/55/112
f 64/55/112 50/60/115 88/63/116
f 27/13/23 1/11/22 89/65/118
f 89/65/118 1/11/22 48/67/119
f 19/74/120 66/75/121 48/67/119
f 48/67/119 66/75/121 89/65/118
f 66/75/121 24/56/113 89/65/118
f 89/65/118 24/56/113 65/64/117
f 9/10/9 27/13/23 65/64/117
f 65/64/117 27/13/23 89/65/118
f 47/89/122 7/40/90 90/90/123
f 90/90/123 7/40/90 33/49/92
f 12/34/88 63/59/114 33/49/92
f 33/49/92 63/59/114 90/90/123
f 63/59/114 24/56/113 90/90/123
f 90/90/123 24/56/113 66/75/121
f 19/74/120 47/89/122 66/75/121
f 66/75/121 47/89/122 90/90/123
f 49/53/110 8/29/84 91/91/124
f 91/91/124 8/29/84 46/32/86
f 18/19/74 68/22/125 46/35/86
f 46/35/86 68/22/125 91/108/124
f 68/22/125 25/114/126 91/108/124
f 91/108/124 25/114/126 67/109/127
f 20/54/111 49/53/110 67/92/127
f 67/92/127 49/53/110 91/91/124
f 45/81/73 6/46/33 92/83/128
f 92/83/128 6/46/33 42/45/32
f 16/38/28 69/84/129 42/45/32
f 42/45/32 69/84/129 92/83/128
f 69/107/129 25/114/126 92/106/128
f 92/106/128 25/114/126 68/22/125
f 18/19/74 45/17/73 68/22/125
f 68/22/125 45/17/73 92/106/128
f 41/36/27 4/3/10 93/85/130
f 93/85/130 4/3/10 38/5/12
f 14/24/5 70/103/131 38/102/12
f 38/102/12 70/103/131 93/101/130
f 70/103/131 25/114/126 93/101/130
f 93/101/130 25/114/126 69/107/129
f 16/38/28 41/36/27 69/84/129
f 69/84/129 41/36/27 93/85/130
f 37/2/2 2/1/1 94/93/132
f 94/93/132 2/1/1 50/60/115
f 20/54/111 67/92/127 50/60/115
f 50/60/115 67/92/127 94/93/132
f 67/109/127 25/114/126 94/100/132
f 94/100/132 25/114/126 70/103/131
f 14/24/5 37/15/2 70/103/131
f 70/103/131 37/15/2 94/100/132
f 48/67/119 1/11/22 95/96/133
f 95/96/133 1/11/22 35/18/24
f 13/20/20 72/39/134 35/117/24
f 35/117/24 72/39/134 95/123/133
f 72/39/134 26/241/135 95/123/133
f 95/123/133 26/241/135 71/242/136
f 19/74/120 48/67/119 71/97/136
f 71/97/136 48/67/119 95/96/133
f 36/23/17 3/16/16 96/86/137
f 96/86/137 3/16/16 39/69/64
f 15/62/54 73/88/138 39/69/64
f 39/69/64 73/88/138 96/86/137
f 73/243/138 26/241/135 96/244/137
f 96/244/137 26/241/135 72/39/134
f 13/20/20 36/245/17 72/39/134
f 72/39/134 36/245/17 96/244/137
f 40/61/53 5/58/52 97/95/139
f 97/95/139 5/58/52 43/110/107
f 17/207/94 74/247/140 43/233/107
f 43/233/107 74/247/140 97/249/139
f 74/247/140 26/241/135 97/249/139
f 97/249/139 26/241/135 73/243/138
f 15/62/54 40/61/53 73/88/138
f 73/88/138 40/61/53 97/95/139
f 44/43/91 7/40/90 98/98/141
f 98/98/141 7/40/90 47/89/122
f 19/74/120 71/97/136 47/89/122
f 47/89/122 71/97/136 98/98/141
f 71/242/136 26/241/135 98/250/141
f 98/250/141 26/241/135 74/247/140
f 17/207/94 44/200/91 74/247/140
f 74/247/140 44/200/91 98/250/141
f 99/111/142 111/112/143 57/48/46 80/47/34 100/113/144
s 32
f 101/119/145 100/113/146 80/47/147
s 1
f 80/47/34 6/46/33 102/120/148
f 6/46/33 103/121/149 102/120/150
f 6/46/33 45/81/73 104/122/151 103/121/149
f 83/77/75 105/134/152 45/81/73
f 106/138/153 105/134/154 83/77/75
f 83/77/75 107/76/80 108/177/155 106/138/153
f 107/76/80 11/72/79 109/180/156
s 33
f 109/180/157 11/72/158 110/183/159
s 1
f 11/72/79 57/48/46 111/112/143 112/186/160
f 112/186/161 111/112/143 99/111/142
s 18
f 102/144/162 103/130/66 116/143/69 119/151/163
s 34
f 32/80/164 142/170/165 139/164/166
f 32/80/164 147/171/167 142/170/165
s 19
f 108/133/168 123/135/169 118/145/170 106/150/171
s 36
f 108/133/172 109/160/173 122/163/174 123/135/175
s 18
f 32/80/176 144/172/177 141/166/178
s 8
f 113/128/37 119/127/36 134/147/179 125/152/180
s 9
f 114/141/42 121/139/41 135/148/181 126/149/182
s 8
f 113/128/37 120/154/183 100/157/184 101/129/38
s 18
f 116/143/69 117/132/68 132/156/185 131/158/186
s 19
f 118/145/170 124/251/187 105/28/188 106/150/171
s 9
f 114/141/42 122/153/189 109/155/190 110/136/39
s 18
f 119/151/163 116/143/69 131/158/186 134/147/191
s 34
f 120/154/192 115/161/193 99/235/194 100/157/195
f 115/162/193 121/139/196 112/137/197 99/224/194
s 19
f 118/145/170 123/135/169 136/256/198 133/105/199
s 36
f 123/135/175 122/163/174 128/277/200 136/256/201
s 18
f 124/238/202 117/132/68 104/131/67 105/239/203
s 8
f 125/152/180 127/236/204 120/154/183 113/128/37
s 19
f 133/105/199 129/240/205 124/251/187 118/145/170
s 9
f 126/149/182 128/277/206 122/153/189 114/141/42
s 34
f 127/236/207 130/237/208 115/161/193 120/154/192
f 130/237/208 135/148/209 121/139/196 115/162/193
s 18
f 129/240/210 132/156/185 117/132/68 124/238/202
s 8
f 125/152/180 134/147/179 146/175/211 137/165/45
s 9
f 126/149/182 135/148/181 147/171/212 138/169/83
s 18
f 131/158/186 132/156/185 144/172/177 143/246/213
f 134/147/191 131/158/186 143/246/213 146/175/214
s 19
f 133/105/199 136/256/198 148/273/215 145/167/72
s 36
f 136/256/201 128/277/200 140/168/216 148/273/217
s 8
f 137/165/45 139/164/44 127/236/204 125/152/180
s 19
f 145/167/72 141/166/71 129/240/205 133/105/199
s 9
f 138/169/83 140/168/82 128/277/206 126/149/182
s 34
f 139/164/166 142/170/165 130/237/208 127/236/207
f 142/170/165 147/171/167 135/148/209 130/237/208
s 18
f 141/166/178 144/172/177 132/156/185 129/240/210
s 8
f 137/165/45 146/175/211 32/80/43
s 9
f 138/169/83 147/171/212 32/80/81
s 18
f 143/246/213 144/172/177 32/80/176
f 146/175/214 143/246/213 32/80/176
s 19
f 145/167/72 148/273/215 32/80/70
s 36
f 148/273/217 140/168/216 32/80/218
s 1
f 57/48/46 150/188/219 151/192/220 149/258/221 81/51/50
f 150/188/219 152/259/222 151/192/223
f 11/72/79 153/260/224 154/261/225 57/48/46
f 153/260/224 155/262/226 154/261/227
f 156/79/106 157/263/228 155/262/226 153/260/224 11/72/79
f 158/264/229 157/263/230 86/78/105
f 159/265/108 160/266/231 158/264/229 86/78/105
f 43/110/107 161/267/232 162/268/233 159/265/108
f 161/267/232 163/269/234 162/268/235
f 5/58/52 164/270/236 163/269/234 161/267/232 43/110/107
f 165/57/51 166/271/237 164/270/236 5/58/52
f 149/258/221 166/271/238 81/51/50
s 39
f 152/213/239 168/215/240 173/178/241 151/176/242
f 154/182/243 174/181/244 168/184/240 152/199/239
s 16
f 31/82/245 201/219/246 198/222/247
s 26
f 160/159/248 177/185/249 170/187/250 158/197/251
s 42
f 162/204/252 176/209/253 177/185/254 160/159/255
s 15
f 31/82/256 199/223/257 197/220/258
s 12
f 175/202/259 167/190/97 164/189/96 166/203/260
s 15
f 174/181/58 172/174/57 187/201/261 183/205/262
s 16
f 171/179/62 173/178/61 188/228/263 186/227/264
s 12
f 169/191/98 167/190/97 179/206/265 181/208/266
f 176/194/100 169/191/98 181/208/266 184/211/267
s 26
f 170/187/250 178/217/268 157/248/269 158/197/251
s 39
f 173/178/241 168/215/240 180/210/270 188/228/271
f 168/184/240 174/181/244 183/205/272 180/210/270
s 16
f 171/179/62 175/275/273 166/198/274 149/195/63
s 26
f 170/187/250 177/185/249 190/104/275 182/225/276
s 42
f 177/185/254 176/209/253 184/211/277 190/104/278
s 15
f 178/212/279 172/174/57 155/173/56 157/214/280
s 12
f 189/216/281 179/206/265 167/190/97 175/202/259
s 26
f 182/225/276 185/272/282 178/217/268 170/187/250
s 16
f 186/227/264 189/216/283 175/275/273 171/179/62
s 15
f 185/272/284 187/201/261 172/174/57 178/212/279
f 183/205/262 187/201/261 199/223/257 195/226/285
s 16
f 186/227/264 188/228/263 200/229/286 198/222/247
s 12
f 181/208/266 179/206/265 191/218/48 193/274/287
f 184/211/267 181/208/266 193/274/287 196/276/288
s 39
f 188/228/271 180/210/270 192/278/289 200/229/290
f 180/210/270 183/205/272 195/226/291 192/278/289
s 26
f 182/225/276 190/104/275 202/99/292 194/221/104
s 42
f 190/104/278 184/211/277 196/276/293 202/99/294
s 12
f 201/219/49 191/218/48 179/206/265 189/216/281
s 26
f 194/221/104 197/220/103 185/272/282 182/225/276
s 16
f 198/222/247 201/219/246 189/216/283 186/227/264
s 15
f 197/220/258 199/223/257 187/201/261 185/272/284
f 195/226/285 199/223/257 31/82/256
s 16
f 198/222/247 200/229/286 31/82/245
s 12
f 193/274/287 191/218/48 31/82/47
f 196/276/288 193/274/287 31/82/47
s 39
f 200/229/290 192/278/289 31/82/295
f 192/278/289 195/226/291 31/82/295
s 26
f 194/221/104 202/99/292 31/82/102
s 42
f 202/99/294 196/276/293 31/82/296
s 33
f 11/72/158 112/186/297 110/183/159
s 1
f 57/48/46 154/261/298 152/259/222 150/188/219
s 32
f 80/47/147 102/120/299 101/119/145
s 1
f 81/51/50 166/271/300 165/57/51
f 86/78/105 157/263/301 156/79/106
s off
f 107/76/302 109/180/303 108/177/304
f 159/265/305 162/268/306 160/266/307
s 1
f 45/81/73 105/134/308 104/122/151
